{
  "name": "asqatasun-asqatasun",
  "version": "0.1.0",
  "author": "asqatasun.org",
  "summary": "Install and configure Asqatasun webapp",
  "license": "AGPL-3.0-only",
  "source": "https://gitlab.com/asqatasun/asqatasun-puppet.git",
  "project_page": "https://gitlab.com/asqatasun/asqatasun-puppet",
  "issues_url": "https://gitlab.com/asqatasun/asqatasun-puppet/-/issues",
  "tags": [
    "asqatasun",
    "a11y",
    "demarches"
  ],
  "dependencies": [
    {
      "name": "puppetlabs/stdlib",
      "version_requirement": ">= 6.0.0 < 7.0.0"
    }
  ],
  "operatingsystem_support": [
    {
      "operatingsystem": "Ubuntu",
      "operatingsystemrelease": [
        "18.04"
      ]
    }
  ],
  "requirements": [
    {
      "name": "puppet",
      "version_requirement": ">= 5.0.0 < 7.0.0"
    }
  ],
  "pdk-version": "1.18.1",
  "template-url": "pdk-default#1.18.1",
  "template-ref": "tags/1.18.1-0-g3d2e75c"
}
